%YAML 1.1
%TAG !u! tag:unity3d.com,2011:
--- !u!74 &7400000
AnimationClip:
  m_ObjectHideFlags: 0
  m_PrefabParentObject: {fileID: 0}
  m_PrefabInternal: {fileID: 0}
  m_Name: blueShotRight
  serializedVersion: 4
  m_AnimationType: 2
  m_Compressed: 0
  m_UseHighQualityCurve: 1
  m_RotationCurves: []
  m_CompressedRotationCurves: []
  m_PositionCurves: []
  m_ScaleCurves:
  - curve:
      serializedVersion: 2
      m_Curve:
      - time: 0
        value: {x: 1, y: 1, z: 1}
        inSlope: {x: 0, y: 0, z: 0}
        outSlope: {x: 0, y: 0, z: 0}
        tangentMode: 2
      - time: .0833333358
        value: {x: 1, y: 1, z: 1}
        inSlope: {x: 3, y: 3, z: 3}
        outSlope: {x: 3, y: 3, z: 3}
        tangentMode: 0
      - time: .166666672
        value: {x: 1.5, y: 1.5, z: 1.5}
        inSlope: {x: -2.38418579e-07, y: -2.38418579e-07, z: -2.38418579e-07}
        outSlope: {x: -2.38418579e-07, y: -2.38418579e-07, z: -2.38418579e-07}
        tangentMode: 1070945621
      - time: .25
        value: {x: 1, y: 1, z: 1}
        inSlope: {x: -4.76837158e-07, y: -4.76837158e-07, z: -4.76837158e-07}
        outSlope: {x: -4.76837158e-07, y: -4.76837158e-07, z: -4.76837158e-07}
        tangentMode: 1042983592
      - time: .333333343
        value: {x: 1.5, y: 1.5, z: 1.5}
        inSlope: {x: -9.53674316e-07, y: -9.53674316e-07, z: -9.53674316e-07}
        outSlope: {x: -9.53674316e-07, y: -9.53674316e-07, z: -9.53674316e-07}
        tangentMode: 872415232
      - time: .416666657
        value: {x: 1, y: 1, z: 1}
        inSlope: {x: -6.00000143, y: -6.00000143, z: -6.00000143}
        outSlope: {x: -6.00000143, y: -6.00000143, z: -6.00000143}
        tangentMode: 0
      m_PreInfinity: 2
      m_PostInfinity: 2
    path: 
  m_FloatCurves: []
  m_PPtrCurves:
  - curve:
    - time: 0
      value: {fileID: 21300018, guid: d18d582cd7b454381b5714b5df506baf, type: 3}
    - time: .416666657
      value: {fileID: 21300012, guid: 9b4f600e13a1b45459c3a1d45cdea49f, type: 3}
    - time: 1.5
      value: {fileID: 21300092, guid: d18d582cd7b454381b5714b5df506baf, type: 3}
    attribute: m_Sprite
    path: 
    classID: 212
    script: {fileID: 0}
  m_SampleRate: 60
  m_WrapMode: 0
  m_Bounds:
    m_Center: {x: 0, y: 0, z: 0}
    m_Extent: {x: 0, y: 0, z: 0}
  m_AnimationClipSettings:
    serializedVersion: 2
    m_StartTime: 0
    m_StopTime: 1.51666665
    m_OrientationOffsetY: 0
    m_Level: 0
    m_CycleOffset: 0
    m_LoopTime: 1
    m_LoopBlend: 0
    m_LoopBlendOrientation: 0
    m_LoopBlendPositionY: 0
    m_LoopBlendPositionXZ: 0
    m_KeepOriginalOrientation: 0
    m_KeepOriginalPositionY: 1
    m_KeepOriginalPositionXZ: 0
    m_HeightFromFeet: 0
    m_Mirror: 0
  m_EditorCurves:
  - curve:
      serializedVersion: 2
      m_Curve:
      - time: 0
        value: 1
        inSlope: 0
        outSlope: 0
        tangentMode: 10
      - time: .0833333358
        value: 1
        inSlope: 3
        outSlope: 3
        tangentMode: 10
      - time: .166666672
        value: 1.5
        inSlope: -2.38418579e-07
        outSlope: -2.38418579e-07
        tangentMode: 10
      - time: .25
        value: 1
        inSlope: -4.76837158e-07
        outSlope: -4.76837158e-07
        tangentMode: 10
      - time: .333333343
        value: 1.5
        inSlope: -9.53674316e-07
        outSlope: -9.53674316e-07
        tangentMode: 10
      - time: .416666657
        value: 1
        inSlope: -6.00000143
        outSlope: -6.00000143
        tangentMode: 10
      m_PreInfinity: 2
      m_PostInfinity: 2
    attribute: m_LocalScale.x
    path: 
    classID: 4
    script: {fileID: 0}
  - curve:
      serializedVersion: 2
      m_Curve:
      - time: 0
        value: 1
        inSlope: 0
        outSlope: 0
        tangentMode: 10
      - time: .0833333358
        value: 1
        inSlope: 3
        outSlope: 3
        tangentMode: 10
      - time: .166666672
        value: 1.5
        inSlope: -2.38418579e-07
        outSlope: -2.38418579e-07
        tangentMode: 10
      - time: .25
        value: 1
        inSlope: -4.76837158e-07
        outSlope: -4.76837158e-07
        tangentMode: 10
      - time: .333333343
        value: 1.5
        inSlope: -9.53674316e-07
        outSlope: -9.53674316e-07
        tangentMode: 10
      - time: .416666657
        value: 1
        inSlope: -6.00000143
        outSlope: -6.00000143
        tangentMode: 10
      m_PreInfinity: 2
      m_PostInfinity: 2
    attribute: m_LocalScale.y
    path: 
    classID: 4
    script: {fileID: 0}
  - curve:
      serializedVersion: 2
      m_Curve:
      - time: 0
        value: 1
        inSlope: 0
        outSlope: 0
        tangentMode: 10
      - time: .0833333358
        value: 1
        inSlope: 3
        outSlope: 3
        tangentMode: 10
      - time: .166666672
        value: 1.5
        inSlope: -2.38418579e-07
        outSlope: -2.38418579e-07
        tangentMode: 10
      - time: .25
        value: 1
        inSlope: -4.76837158e-07
        outSlope: -4.76837158e-07
        tangentMode: 10
      - time: .333333343
        value: 1.5
        inSlope: -9.53674316e-07
        outSlope: -9.53674316e-07
        tangentMode: 10
      - time: .416666657
        value: 1
        inSlope: -6.00000143
        outSlope: -6.00000143
        tangentMode: 10
      m_PreInfinity: 2
      m_PostInfinity: 2
    attribute: m_LocalScale.z
    path: 
    classID: 4
    script: {fileID: 0}
  m_EulerEditorCurves: []
  m_Events: []
